module gitlab.com/shar-workflow/shar

go 1.22

toolchain go1.22.0

require (
	github.com/agoda-com/opentelemetry-go/otelslog v0.1.0
	github.com/agoda-com/opentelemetry-logs-go v0.4.3
	github.com/antchfx/xmlquery v1.3.18
	github.com/caarlos0/env/v6 v6.10.1
	github.com/davecgh/go-spew v1.1.1
	github.com/docker/docker v24.0.7+incompatible
	github.com/docker/go-connections v0.4.0
	github.com/expr-lang/expr v1.15.7
	github.com/go-logr/logr v1.4.1
	github.com/goccy/go-yaml v1.11.2
	github.com/golang-jwt/jwt v3.2.2+incompatible
	github.com/hashicorp/go-version v1.6.0
	github.com/nats-io/nats-server/v2 v2.10.7
	github.com/nats-io/nats.go v1.31.0
	github.com/opencontainers/image-spec v1.1.0-rc5
	github.com/pterm/pterm v0.12.71
	github.com/relvacode/iso8601 v1.3.0
	github.com/segmentio/ksuid v1.0.4
	github.com/spf13/cobra v1.8.0
	github.com/stretchr/testify v1.8.4
	github.com/testcontainers/testcontainers-go v0.26.0
	github.com/yoheimuta/go-protoparser v3.4.0+incompatible
	gitlab.com/shar-workflow/nats-proto-gen-go v0.0.0-20231114143611-df0240df32cb
	go.opentelemetry.io/contrib/propagators/autoprop v0.48.0
	go.opentelemetry.io/otel v1.23.0
	go.opentelemetry.io/otel/exporters/otlp/otlpmetric/otlpmetrichttp v0.44.0
	go.opentelemetry.io/otel/exporters/otlp/otlptrace/otlptracehttp v1.21.0
	go.opentelemetry.io/otel/exporters/stdout/stdouttrace v1.23.0
	go.opentelemetry.io/otel/metric v1.23.0
	go.opentelemetry.io/otel/sdk v1.23.0
	go.opentelemetry.io/otel/sdk/metric v1.21.0
	go.opentelemetry.io/otel/trace v1.23.0
	golang.org/x/exp v0.0.0-20240103183307-be819d1f06fc
	google.golang.org/grpc v1.59.0
	google.golang.org/protobuf v1.32.0
)

require (
	4d63.com/gocheckcompilerdirectives v1.2.1 // indirect
	4d63.com/gochecknoglobals v0.2.1 // indirect
	atomicgo.dev/cursor v0.2.0 // indirect
	atomicgo.dev/keyboard v0.2.9 // indirect
	atomicgo.dev/schedule v0.1.0 // indirect
	dario.cat/mergo v1.0.0 // indirect
	github.com/4meepo/tagalign v1.3.3 // indirect
	github.com/Abirdcfly/dupword v0.0.13 // indirect
	github.com/Antonboom/errname v0.1.12 // indirect
	github.com/Antonboom/nilnil v0.1.7 // indirect
	github.com/Antonboom/testifylint v1.1.2 // indirect
	github.com/Azure/go-ansiterm v0.0.0-20230124172434-306776ec8161 // indirect
	github.com/BurntSushi/toml v1.3.2 // indirect
	github.com/Djarvur/go-err113 v0.0.0-20210108212216-aea10b59be24 // indirect
	github.com/GaijinEntertainment/go-exhaustruct/v3 v3.2.0 // indirect
	github.com/Masterminds/semver v1.5.0 // indirect
	github.com/Microsoft/go-winio v0.6.1 // indirect
	github.com/Microsoft/hcsshim v0.11.4 // indirect
	github.com/OpenPeeDeeP/depguard/v2 v2.2.0 // indirect
	github.com/alecthomas/go-check-sumtype v0.1.4 // indirect
	github.com/alexkohler/nakedret/v2 v2.0.2 // indirect
	github.com/alexkohler/prealloc v1.0.0 // indirect
	github.com/alingse/asasalint v0.0.11 // indirect
	github.com/antchfx/xpath v1.2.5 // indirect
	github.com/ashanbrown/forbidigo v1.6.0 // indirect
	github.com/ashanbrown/makezero v1.1.1 // indirect
	github.com/beorn7/perks v1.0.1 // indirect
	github.com/bkielbasa/cyclop v1.2.1 // indirect
	github.com/blizzy78/varnamelen v0.8.0 // indirect
	github.com/bombsimon/wsl/v4 v4.2.1 // indirect
	github.com/breml/bidichk v0.2.7 // indirect
	github.com/breml/errchkjson v0.3.6 // indirect
	github.com/butuzov/ireturn v0.3.0 // indirect
	github.com/butuzov/mirror v1.1.0 // indirect
	github.com/catenacyber/perfsprint v0.6.0 // indirect
	github.com/ccojocar/zxcvbn-go v1.0.2 // indirect
	github.com/cenkalti/backoff/v4 v4.2.1 // indirect
	github.com/cespare/xxhash/v2 v2.2.0 // indirect
	github.com/charithe/durationcheck v0.0.10 // indirect
	github.com/chavacava/garif v0.1.0 // indirect
	github.com/chigopher/pathlib v0.19.1 // indirect
	github.com/containerd/console v1.0.3 // indirect
	github.com/containerd/containerd v1.7.11 // indirect
	github.com/containerd/log v0.1.0 // indirect
	github.com/cpuguy83/dockercfg v0.3.1 // indirect
	github.com/curioswitch/go-reassign v0.2.0 // indirect
	github.com/daixiang0/gci v0.12.1 // indirect
	github.com/denis-tingaikin/go-header v0.4.3 // indirect
	github.com/distribution/reference v0.5.0 // indirect
	github.com/docker/distribution v2.8.3+incompatible // indirect
	github.com/docker/go-units v0.5.0 // indirect
	github.com/esimonov/ifshort v1.0.4 // indirect
	github.com/ettle/strcase v0.2.0 // indirect
	github.com/fatih/color v1.16.0 // indirect
	github.com/fatih/structtag v1.2.0 // indirect
	github.com/firefart/nonamedreturns v1.0.4 // indirect
	github.com/fsnotify/fsnotify v1.6.0 // indirect
	github.com/fzipp/gocyclo v0.6.0 // indirect
	github.com/ghostiam/protogetter v0.3.4 // indirect
	github.com/go-critic/go-critic v0.11.1 // indirect
	github.com/go-logr/stdr v1.2.2 // indirect
	github.com/go-ole/go-ole v1.3.0 // indirect
	github.com/go-toolsmith/astcast v1.1.0 // indirect
	github.com/go-toolsmith/astcopy v1.1.0 // indirect
	github.com/go-toolsmith/astequal v1.2.0 // indirect
	github.com/go-toolsmith/astfmt v1.1.0 // indirect
	github.com/go-toolsmith/astp v1.1.0 // indirect
	github.com/go-toolsmith/strparse v1.1.0 // indirect
	github.com/go-toolsmith/typep v1.1.0 // indirect
	github.com/go-viper/mapstructure/v2 v2.0.0-alpha.1 // indirect
	github.com/go-xmlfmt/xmlfmt v1.1.2 // indirect
	github.com/gobwas/glob v0.2.3 // indirect
	github.com/gofrs/flock v0.8.1 // indirect
	github.com/gogo/protobuf v1.3.2 // indirect
	github.com/golang/groupcache v0.0.0-20210331224755-41bb18bfe9da // indirect
	github.com/golang/protobuf v1.5.3 // indirect
	github.com/golangci/check v0.0.0-20180506172741-cfe4005ccda2 // indirect
	github.com/golangci/dupl v0.0.0-20180902072040-3e9179ac440a // indirect
	github.com/golangci/go-misc v0.0.0-20220329215616-d24fe342adfe // indirect
	github.com/golangci/gofmt v0.0.0-20231018234816-f50ced29576e // indirect
	github.com/golangci/golangci-lint v1.56.2 // indirect
	github.com/golangci/lint-1 v0.0.0-20191013205115-297bf364a8e0 // indirect
	github.com/golangci/maligned v0.0.0-20180506175553-b1d89398deca // indirect
	github.com/golangci/misspell v0.4.1 // indirect
	github.com/golangci/revgrep v0.5.2 // indirect
	github.com/golangci/unconvert v0.0.0-20180507085042-28b1c447d1f4 // indirect
	github.com/google/go-cmp v0.6.0 // indirect
	github.com/google/uuid v1.6.0 // indirect
	github.com/gookit/color v1.5.4 // indirect
	github.com/gordonklaus/ineffassign v0.1.0 // indirect
	github.com/gostaticanalysis/analysisutil v0.7.1 // indirect
	github.com/gostaticanalysis/comment v1.4.2 // indirect
	github.com/gostaticanalysis/forcetypeassert v0.1.0 // indirect
	github.com/gostaticanalysis/nilerr v0.1.1 // indirect
	github.com/grpc-ecosystem/grpc-gateway/v2 v2.18.1 // indirect
	github.com/hashicorp/hcl v1.0.0 // indirect
	github.com/hexops/gotextdiff v1.0.3 // indirect
	github.com/huandu/xstrings v1.4.0 // indirect
	github.com/iancoleman/strcase v0.2.0 // indirect
	github.com/inconshreveable/mousetrap v1.1.0 // indirect
	github.com/jgautheron/goconst v1.7.0 // indirect
	github.com/jingyugao/rowserrcheck v1.1.1 // indirect
	github.com/jinzhu/copier v0.3.5 // indirect
	github.com/jirfag/go-printf-func-name v0.0.0-20200119135958-7558a9eaa5af // indirect
	github.com/jjti/go-spancheck v0.5.2 // indirect
	github.com/julz/importas v0.1.0 // indirect
	github.com/kisielk/errcheck v1.7.0 // indirect
	github.com/kisielk/gotool v1.0.0 // indirect
	github.com/kkHAIKE/contextcheck v1.1.4 // indirect
	github.com/klauspost/compress v1.17.4 // indirect
	github.com/kulti/thelper v0.6.3 // indirect
	github.com/kunwardeep/paralleltest v1.0.9 // indirect
	github.com/kyoh86/exportloopref v0.1.11 // indirect
	github.com/ldez/gomoddirectives v0.2.3 // indirect
	github.com/ldez/tagliatelle v0.5.0 // indirect
	github.com/leonklingele/grouper v1.1.1 // indirect
	github.com/lithammer/fuzzysearch v1.1.8 // indirect
	github.com/lufeee/execinquery v1.2.1 // indirect
	github.com/lufia/plan9stats v0.0.0-20231016141302-07b5767bb0ed // indirect
	github.com/macabu/inamedparam v0.1.3 // indirect
	github.com/magiconair/properties v1.8.7 // indirect
	github.com/maratori/testableexamples v1.0.0 // indirect
	github.com/maratori/testpackage v1.1.1 // indirect
	github.com/matoous/godox v0.0.0-20230222163458-006bad1f9d26 // indirect
	github.com/mattn/go-colorable v0.1.13 // indirect
	github.com/mattn/go-isatty v0.0.20 // indirect
	github.com/mattn/go-runewidth v0.0.15 // indirect
	github.com/matttproud/golang_protobuf_extensions v1.0.4 // indirect
	github.com/mbilski/exhaustivestruct v1.2.0 // indirect
	github.com/mgechev/revive v1.3.7 // indirect
	github.com/minio/highwayhash v1.0.2 // indirect
	github.com/mitchellh/go-homedir v1.1.0 // indirect
	github.com/mitchellh/mapstructure v1.5.0 // indirect
	github.com/moby/patternmatcher v0.6.0 // indirect
	github.com/moby/sys/sequential v0.5.0 // indirect
	github.com/moby/term v0.5.0 // indirect
	github.com/moricho/tparallel v0.3.1 // indirect
	github.com/morikuni/aec v1.0.0 // indirect
	github.com/nakabonne/nestif v0.3.1 // indirect
	github.com/nats-io/jwt/v2 v2.5.3 // indirect
	github.com/nats-io/nkeys v0.4.6 // indirect
	github.com/nats-io/nuid v1.0.1 // indirect
	github.com/nishanths/exhaustive v0.12.0 // indirect
	github.com/nishanths/predeclared v0.2.2 // indirect
	github.com/nunnatsa/ginkgolinter v0.15.2 // indirect
	github.com/olekukonko/tablewriter v0.0.5 // indirect
	github.com/opencontainers/go-digest v1.0.0 // indirect
	github.com/opencontainers/runc v1.1.10 // indirect
	github.com/pelletier/go-toml v1.9.5 // indirect
	github.com/pelletier/go-toml/v2 v2.0.6 // indirect
	github.com/pkg/errors v0.9.1 // indirect
	github.com/pmezard/go-difflib v1.0.0 // indirect
	github.com/polyfloyd/go-errorlint v1.4.8 // indirect
	github.com/power-devops/perfstat v0.0.0-20221212215047-62379fc7944b // indirect
	github.com/prometheus/client_golang v1.14.0 // indirect
	github.com/prometheus/client_model v0.3.0 // indirect
	github.com/prometheus/common v0.37.0 // indirect
	github.com/prometheus/procfs v0.8.0 // indirect
	github.com/quasilyte/go-ruleguard v0.4.0 // indirect
	github.com/quasilyte/gogrep v0.5.0 // indirect
	github.com/quasilyte/regex/syntax v0.0.0-20210819130434-b3f0c404a727 // indirect
	github.com/quasilyte/stdinfo v0.0.0-20220114132959-f7386bf02567 // indirect
	github.com/rivo/uniseg v0.4.4 // indirect
	github.com/rogpeppe/go-internal v1.12.0 // indirect
	github.com/rs/zerolog v1.29.0 // indirect
	github.com/ryancurrah/gomodguard v1.3.0 // indirect
	github.com/ryanrolds/sqlclosecheck v0.5.1 // indirect
	github.com/sanposhiho/wastedassign/v2 v2.0.7 // indirect
	github.com/sashamelentyev/interfacebloat v1.1.0 // indirect
	github.com/sashamelentyev/usestdlibvars v1.25.0 // indirect
	github.com/securego/gosec/v2 v2.19.0 // indirect
	github.com/shazow/go-diff v0.0.0-20160112020656-b6b7b6733b8c // indirect
	github.com/shirou/gopsutil/v3 v3.24.1 // indirect
	github.com/shoenig/go-m1cpu v0.1.6 // indirect
	github.com/sirupsen/logrus v1.9.3 // indirect
	github.com/sivchari/containedctx v1.0.3 // indirect
	github.com/sivchari/nosnakecase v1.7.0 // indirect
	github.com/sivchari/tenv v1.7.1 // indirect
	github.com/sonatard/noctx v0.0.2 // indirect
	github.com/sourcegraph/go-diff v0.7.0 // indirect
	github.com/spf13/afero v1.11.0 // indirect
	github.com/spf13/cast v1.5.0 // indirect
	github.com/spf13/jwalterweatherman v1.1.0 // indirect
	github.com/spf13/pflag v1.0.5 // indirect
	github.com/spf13/viper v1.15.0 // indirect
	github.com/ssgreg/nlreturn/v2 v2.2.1 // indirect
	github.com/stbenjam/no-sprintf-host-port v0.1.1 // indirect
	github.com/stretchr/objx v0.5.1 // indirect
	github.com/subosito/gotenv v1.4.2 // indirect
	github.com/t-yuki/gocover-cobertura v0.0.0-20180217150009-aaee18c8195c // indirect
	github.com/tdakkota/asciicheck v0.2.0 // indirect
	github.com/tetafro/godot v1.4.16 // indirect
	github.com/timakin/bodyclose v0.0.0-20230421092635-574207250966 // indirect
	github.com/timonwong/loggercheck v0.9.4 // indirect
	github.com/tklauser/go-sysconf v0.3.13 // indirect
	github.com/tklauser/numcpus v0.7.0 // indirect
	github.com/tomarrell/wrapcheck/v2 v2.8.1 // indirect
	github.com/tommy-muehle/go-mnd/v2 v2.5.1 // indirect
	github.com/ultraware/funlen v0.1.0 // indirect
	github.com/ultraware/whitespace v0.1.0 // indirect
	github.com/uudashr/gocognit v1.1.2 // indirect
	github.com/vektra/mockery/v2 v2.41.0 // indirect
	github.com/xen0n/gosmopolitan v1.2.2 // indirect
	github.com/xo/terminfo v0.0.0-20220910002029-abceb7e1c41e // indirect
	github.com/yagipy/maintidx v1.0.0 // indirect
	github.com/yeya24/promlinter v0.2.0 // indirect
	github.com/ykadowak/zerologlint v0.1.5 // indirect
	github.com/yusufpapurcu/wmi v1.2.3 // indirect
	gitlab.com/bosi/decorder v0.4.1 // indirect
	go-simpler.org/musttag v0.8.0 // indirect
	go-simpler.org/sloglint v0.4.0 // indirect
	go.opentelemetry.io/contrib/propagators/aws v1.23.0 // indirect
	go.opentelemetry.io/contrib/propagators/b3 v1.23.0 // indirect
	go.opentelemetry.io/contrib/propagators/jaeger v1.23.0 // indirect
	go.opentelemetry.io/contrib/propagators/ot v1.23.0 // indirect
	go.opentelemetry.io/otel/exporters/otlp/otlptrace v1.21.0 // indirect
	go.opentelemetry.io/proto/otlp v1.0.0 // indirect
	go.uber.org/atomic v1.9.0 // indirect
	go.uber.org/multierr v1.11.0 // indirect
	go.uber.org/zap v1.24.0 // indirect
	golang.org/x/crypto v0.19.0 // indirect
	golang.org/x/exp/typeparams v0.0.0-20231219180239-dc181d75b848 // indirect
	golang.org/x/mod v0.15.0 // indirect
	golang.org/x/net v0.21.0 // indirect
	golang.org/x/sync v0.6.0 // indirect
	golang.org/x/sys v0.17.0 // indirect
	golang.org/x/term v0.17.0 // indirect
	golang.org/x/text v0.14.0 // indirect
	golang.org/x/time v0.5.0 // indirect
	golang.org/x/tools v0.18.0 // indirect
	golang.org/x/xerrors v0.0.0-20231012003039-104605ab7028 // indirect
	google.golang.org/genproto/googleapis/api v0.0.0-20231127180814-3a041ad873d4 // indirect
	google.golang.org/genproto/googleapis/rpc v0.0.0-20231127180814-3a041ad873d4 // indirect
	google.golang.org/grpc/cmd/protoc-gen-go-grpc v1.3.0 // indirect
	gopkg.in/ini.v1 v1.67.0 // indirect
	gopkg.in/yaml.v2 v2.4.0 // indirect
	gopkg.in/yaml.v3 v3.0.1 // indirect
	honnef.co/go/tools v0.4.6 // indirect
	mvdan.cc/gofumpt v0.6.0 // indirect
	mvdan.cc/interfacer v0.0.0-20180901003855-c20040233aed // indirect
	mvdan.cc/lint v0.0.0-20170908181259-adc824a0674b // indirect
	mvdan.cc/unparam v0.0.0-20240104100049-c549a3470d14 // indirect
)
